{
    "MULTIPLES FUENTES": [
        {
            "GENERO": "CIENCIA FICCION, ACCION, AVENTURA, THRILLER",
            "CALIFICACION": "APTA MAYORES DE 13 AÑOS",
            "ORIGEN": "ESTADOS UNIDOS",
            "SINOPSIS": "EN UN FUTURO NO MUY LEJANO, EN UN MUNDO DONDE LAS MUJERES HAN DESAPARECIDO Y LOS HOMBRES HAN SIDO AFECTADOS POR “EL RUIDO” – UNA FUERZA QUE EXHIBE TODOS SUS PENSAMIENTOS – TODD HEWITT (TOM HOLLAND) SE ENCUENTRA CON VIOLA (DAISY RIDLEY), UNA JOVEN MISTERIOSA QUE HA ATERRIZADO EN SU PLANETA  CON VIOLA BAJO RIESGO, TODD JURA PROTEGERLA Y PONERLA FUERA DE PELIGRO  PARA SALVARLA TODD TENDRA QUE CONTROLAR SU “RUIDO”, DESCUBRIR SU PROPIA FUERZA Y DESBLOQUEAR TODOS LOS OBSCUROS SECRETOS QUE GUARDA SU PLANETA Y SU COMUNIDAD  DEL DIRECTOR DE IDENTIDAD DESCONOCIDA (THE BOURNE IDENTITY) Y AL FILO DEL MAÑANA (EDGE OF TOMORROW), BASADA EN LA NOVELA BESTSELLER, EL CUCHILLO EN LA MANO DEL ESCRITOR PATRICK NESS  TOM HOLLAND Y DAISY RIDELY PROTAGONIZAN JUNTO CON DAVID OYELOWO, NICK JONAS, MADS MIKKELSEN Y DEMIAN BICHIR  CAOS: EL INICIO (CHAOS WALKING) LLEGARA A LOS CINES EN 2021",
            "DURACION": "109 MINUTOS",
            "TITULO": "CAOS: EL INICIO",
            "DIRECTOR": "DOUG LIMAN",
            "ACTORES": "DAISY RIDLEY, TOM HOLLAND, MADS MIKKELSEN, DEMIAN BICHIR, CYNTHIA ERIVO, NICK JONAS, RAY MCKINNON, KURT SUTTER, DAVID OYELOWO, OSCAR JAENADA",
            "WEB OFICIAL": "NO DISPONIBLE",
            "TITULO ORIGINAL": "CHAOS WALKING",
            "DISTRIBUIDORA": "BF PARIS",
            "FUNCIONES": {
                "CINEMA SAN MARTIN": {
                    "SALA": "SALA HD",
                    "HORARIOS": [
                        "CASTELLANO : 13:45 - 18:15",
                        "SUBTITULADA : 22:45"
                    ]
                },
                "CINEPOLIS RECOLETA": [
                    {
                        "SALA": "CLASSIC • 2D • SUBTITULADO",
                        "HORARIO": "23:15"
                    }
                ],
                "CINEPOLIS PILAR": [
                    {
                        "SALA": "CLASSIC • 2D • SUBTITULADO",
                        "HORARIO": "22:50"
                    }
                ],
                "CINEPOLIS MERLO": [
                    {
                        "SALA": "CLASSIC • 2D • ESPAÑOL",
                        "HORARIO": "23:00"
                    }
                ],
                "CINEPOLIS AVELLANEDA": [
                    {
                        "SALA": "CLASSIC • 2D • ESPAÑOL",
                        "HORARIO": "21:50"
                    }
                ],
                "CINEPOLIS ROSARIO": [
                    {
                        "SALA": "CLASSIC • 2D • ESPAÑOL",
                        "HORARIO": "22:00"
                    }
                ],
                "CINEPOLIS MENDOZA": [
                    {
                        "SALA": "CLASSIC • 2D • ESPAÑOL",
                        "HORARIO": "22:10"
                    }
                ],
                "CINEPOLIS NEUQUEN": [
                    {
                        "SALA": "CLASSIC • 2D • SUBTITULADO",
                        "HORARIO": "23:00"
                    }
                ],
                "CINEPOLIS LUJAN": [
                    {
                        "SALA": "CLASSIC • 2D • ESPAÑOL",
                        "HORARIO": "22:10"
                    }
                ]
            }
        },
        {
            "GENERO": "COMEDIA DRAMATICA",
            "CALIFICACION": "APTA MAYORES DE 13 AÑOS",
            "ORIGEN": "FRANCIA",
            "SINOPSIS": "TRAS 20 AÑOS DE MATRIMONIO, MARIA DECIDE DEJARLO TODO ATRAS Y EMPEZAR UNA NUEVA VIDA  EL PRIMER PASO ES HOSPEDARSE EN LA HABITACION 212 DE UN HOTEL PROXIMO A LA CASA EN LA QUE VIVIA JUNTO A SU FAMILIA  CON EL PASO DEL TIEMPO, COMIENZA A PREGUNTARSE SI HA TOMADO LA DECISION CORRECTA",
            "DURACION": "87 MINUTOS",
            "TITULO": "HABITACION 212",
            "DIRECTOR": "CHRISTOPHE HONORE",
            "ACTORES": "CHIARA MASTROIANNI, VINCENT LACOSTE, CAMILLE COTTIN, BENJAMIN BIOLAY, CAROLE BOUQUET, MARIE-CHRISTINE ADAM, HARRISON AREVALO, STEPHANE ROGER",
            "WEB OFICIAL": "NO DISPONIBLE",
            "TITULO ORIGINAL": "ON A MAGICAL NIGHT",
            "DISTRIBUIDORA": "MIRADA DISTRIBUTION SRL",
            "FUNCIONES": {
                "CINEMA PARADISO": {
                    "SALA": "SALA HD",
                    "HORARIOS": [
                        "SUBTITULADA : 14:00 - 18:00 - 20:00 - 22:00"
                    ]
                },
                "CINEPOLIS RECOLETA": [
                    {
                        "SALA": "CLASSIC • 2D • SUBTITULADO",
                        "HORARIO": "19:50"
                    }
                ]
            }
        },
        {
            "GENERO": "THRILLER, CRIMEN, DRAMA",
            "CALIFICACION": "APTA MAYORES DE 16 AÑOS",
            "ORIGEN": "ESTADOS UNIDOS",
            "SINOPSIS": "DE LA INNOVADORA DIRECTORA EMERALD FENNELL (KILLING EVE) LLEGA UNA DELICIOSA NUEVA VISION SOBRE LA VENGANZA  TODOS DICEN QUE CASSIE (CAREY MULLIGAN) ERA UNA PROMETEDORA MUJER JOVEN   HASTA QUE UN MISTERIOSO SUCESO ABRUPTAMENTE DESCARRILLO SU FUTURO  PERO NADA EN LA VIDA DE CASSIE ES LO QUE APARENTA SER: ELLA ES PICARAMENTE INTELIGENTE, ATORMENTADORAMENTE ASTUTA Y VIVE UNA SECRETA DOBLE VIDA POR LA NOCHE  AHORA, UN ENCUENTRO INESPERADO ESTA A PUNTO DE DARLE A CASSIE LA POSIBILIDAD DE REPARAR LOS ERRORES DEL PASADO EN ESTA FASCINANTE Y TOTALMENTE DIVERTIDA HISTORIA",
            "DURACION": "117 MINUTOS",
            "TITULO": "HERMOSA VENGANZA",
            "DIRECTOR": "EMERALD FENNELL",
            "ACTORES": "CAREY MULLIGAN, BO BURNHAM, ALISON BRIE, ADAM BRODY, CONNIE BRITTON, JENNIFER COOLIDGE, LAVERNE COX, MAX GREENFIELD, CHRISTOPHER MINTZ-PLASSE, SAM RICHARDSON",
            "WEB OFICIAL": "NO DISPONIBLE",
            "TITULO ORIGINAL": "PROMISING YOUNG WOMAN",
            "DISTRIBUIDORA": "UIP",
            "FUNCIONES": {
                "CINEMA CITY": {
                    "SALA": "SALA HD",
                    "HORARIOS": [
                        "SUBTITULADA : 13:15 - 15:40 - 18:10 - 20:30 - 23:00"
                    ]
                },
                "CINEPOLIS RECOLETA": [
                    {
                        "SALA": "CLASSIC • 2D • SUBTITULADO",
                        "HORARIO": "22:10"
                    }
                ],
                "CINEPOLIS PILAR": [
                    {
                        "SALA": "CLASSIC • 2D • SUBTITULADO",
                        "HORARIO": "21:50"
                    }
                ],
                "CINEPOLIS AVELLANEDA": [
                    {
                        "SALA": "CLASSIC • 2D • SUBTITULADO",
                        "HORARIO": "22:10"
                    }
                ],
                "CINEPOLIS ROSARIO": [
                    {
                        "SALA": "CLASSIC • 2D • SUBTITULADO",
                        "HORARIO": "22:45"
                    }
                ],
                "CINEPOLIS MENDOZA": [
                    {
                        "SALA": "CLASSIC • 2D • SUBTITULADO",
                        "HORARIO": "22:15"
                    }
                ],
                "CINEPOLIS NEUQUEN": [
                    {
                        "SALA": "CLASSIC • 2D • SUBTITULADO",
                        "HORARIO": "22:30"
                    }
                ],
                "CINEPOLIS LUJAN": [
                    {
                        "SALA": "CLASSIC • 2D • SUBTITULADO",
                        "HORARIO": "21:40"
                    }
                ]
            }
        },
        {
            "GENERO": "ACCION, CIENCIA FICCION, TERROR",
            "CALIFICACION": "APTA MAYORES DE 13 AÑOS",
            "ORIGEN": "ESTADOS UNIDOS",
            "SINOPSIS": "ENCERRADOS CONTRA SU VOLUNTAD EN UNA INSTITUCION SECRETA, 5 JOVENES MUTANTES DESCUBREN SUS PODEROSAS HABILIDADES  ESTAN BAJO EL ESTUDIO Y ANALISIS DE LA DOCTORA CECILIA REYES QUIEN TIENE COMO OBJETIVO CURARLOS \r\nWOLFSBANE, CANNONBALL, MAGIK, MIRAGE Y SUNSPOT DEBERAN ENFRENTAR SUS MIEDOS, PODERES Y PELIGROS QUE LOS RODEAN PARA INTENTAR ESCAPAR A SU PASADO Y SALVARSE A SI MISMOS",
            "DURACION": "98 MINUTOS",
            "TITULO": "LOS NUEVOS MUTANTES",
            "DIRECTOR": "JOSH BOONE",
            "ACTORES": "ANYA TAYLOR-JOY, MAISIE WILLIAMS, CHARLIE HEATON, BLU HUNT, HENRY ZAGA, ALICE BRAGA, HAPPY ANDERSON, THOMAS KEE, MICKEY GILMORE, JEFFREY CORAZZINI",
            "WEB OFICIAL": "NO DISPONIBLE",
            "TITULO ORIGINAL": "NEW MUTANTS",
            "DISTRIBUIDORA": "20TH FOX",
            "FUNCIONES": {
                "CINEMA CITY": {
                    "SALA": "SALA HD",
                    "HORARIOS": [
                        "SUBTITULADA : 22:15"
                    ]
                },
                "CINEMA OCHO": {
                    "SALA": "SALA HD",
                    "HORARIOS": [
                        "CASTELLANO : 13:15 - 15:40 - 20:20 - 22:50",
                        "SUBTITULADA : 18:05"
                    ]
                },
                "CINEMA ROCHA": {
                    "SALA": "SALA HD",
                    "HORARIOS": [
                        "CASTELLANO : 20:45 - 23:10"
                    ]
                },
                "CINEMA SAN MARTIN": {
                    "SALA": "SALA HD",
                    "HORARIOS": [
                        "CASTELLANO : 13:00 - 18:00 - 20:30",
                        "SUBTITULADA : 15:30 - 23:00"
                    ]
                },
                "CINEPOLIS RECOLETA": [
                    {
                        "SALA": "CLASSIC • 2D • SUBTITULADO",
                        "HORARIO": "22:40"
                    }
                ],
                "CINEPOLIS PILAR": [
                    {
                        "SALA": "CLASSIC • 2D • ESPAÑOL",
                        "HORARIO": "22:40"
                    }
                ],
                "CINEPOLIS MERLO": [
                    {
                        "SALA": "CLASSIC • 2D • ESPAÑOL",
                        "HORARIO": "22:20"
                    }
                ],
                "CINEPOLIS AVELLANEDA": [
                    {
                        "SALA": "CLASSIC • 2D • SUBTITULADO",
                        "HORARIO": "21:45"
                    },
                    {
                        "SALA": "CLASSIC • 2D • ESPAÑOL",
                        "HORARIO": "22:45"
                    }
                ],
                "CINEPOLIS ROSARIO": [
                    {
                        "SALA": "CLASSIC • 2D • ESPAÑOL",
                        "HORARIO": "22:40"
                    }
                ],
                "CINEPOLIS MENDOZA": [
                    {
                        "SALA": "CLASSIC • 2D • ESPAÑOL",
                        "HORARIO": "22:45"
                    }
                ],
                "CINEPOLIS MAIPU": [
                    {
                        "SALA": "CLASSIC • 2D • SUBTITULADO",
                        "HORARIO": "22:45"
                    }
                ],
                "CINEPOLIS NEUQUEN": [
                    {
                        "SALA": "CLASSIC • 2D • SUBTITULADO",
                        "HORARIO": "23:00"
                    }
                ],
                "CINEPOLIS LUJAN": [
                    {
                        "SALA": "CLASSIC • 2D • ESPAÑOL",
                        "HORARIO": "22:20"
                    }
                ]
            }
        },
        {
            "GENERO": "ACCION, AVENTURA, CIENCIA FICCION, THRILLER",
            "CALIFICACION": "APTA MAYORES DE 13 AÑOS",
            "ORIGEN": "ESTADOS UNIDOS",
            "SINOPSIS": "GODZILLA Y KONG, DOS DE LAS FUERZAS MAS PODEROSAS DE UN PLANETA HABITADO POR TODO TIPO DE ATERRADORAS CRIATURAS, SE ENFRENTAN EN UN ESPECTACULAR COMBATE QUE SACUDE LOS CIMIENTOS DE LA HUMANIDAD  MONARCH (KYLE CHANDLER) SE EMBARCA EN UNA MISION DE ALTO RIESGO Y PONE RUMBO HACIA TERRITORIOS INEXPLORADOS PARA DESCUBRIR LOS ORIGENES DE ESTOS DOS TITANES, EN UN ULTIMO ESFUERZO POR TRATAR DE SALVAR A DOS BESTIAS QUE PARECEN TENER LAS HORAS CONTADAS SOBRE LA FAZ DE LA TIERRA",
            "DURACION": "117 MINUTOS",
            "TITULO": "GODZILLA VS  KONG",
            "DIRECTOR": "ADAM WINGARD",
            "ACTORES": "ALEXANDER SKARSGÅRD, MILLIE BOBBY BROWN, KYLE CHANDLER, REBECCA HALL, BRIAN TYREE HENRY, SHUN OGURI, EIZA GONZALEZ, JESSICA HENWICK, JULIAN DENNISON, DEMIAN BICHIR",
            "WEB OFICIAL": "NO DISPONIBLE",
            "TITULO ORIGINAL": "GODZILLA VS  KONG",
            "DISTRIBUIDORA": "WARNER BROS",
            "FUNCIONES": {
                "CINEMA CITY": {
                    "SALA": "SALA 4D",
                    "HORARIOS": [
                        "CASTELLANO : 13:00 - 15:30 - 18:05 - 20:40",
                        "SUBTITULADA : 23:10"
                    ]
                },
                "CINEMA OCHO": {
                    "SALA": "SALA HD",
                    "HORARIOS": [
                        "CASTELLANO : 16:45 - 19:45",
                        "SUBTITULADA : 13:45 - 22:45"
                    ]
                },
                "CINEMA PARADISO": {
                    "SALA": "SALA HD",
                    "HORARIOS": [
                        "CASTELLANO : 13:00 - 15:30 - 18:00 - 20:30 - 23:00"
                    ]
                },
                "CINEMA ROCHA": {
                    "SALA": "SALA HD",
                    "HORARIOS": [
                        "CASTELLANO : 15:00 - 17:40 - 20:20",
                        "SUBTITULADA : 23:00"
                    ]
                },
                "CINEMA SAN MARTIN": {
                    "SALA": "SALA HD",
                    "HORARIOS": [
                        "CASTELLANO : 14:00 - 17:00 - 19:50 - 22:40"
                    ]
                },
                "CINEPOLIS RECOLETA": [
                    {
                        "SALA": "CLASSIC • 2D • SUBTITULADO",
                        "HORARIO": "21:30 - 23:00"
                    },
                    {
                        "SALA": "CLASSIC • 2D • SUBTITULADO",
                        "HORARIO": "22:30"
                    },
                    {
                        "SALA": "4D • 2D • SUBTITULADO",
                        "HORARIO": "22:00"
                    }
                ],
                "CINEPOLIS PILAR": [
                    {
                        "SALA": "CLASSIC • 2D • ESPAÑOL",
                        "HORARIO": "21:30 - 23:00"
                    },
                    {
                        "SALA": "CLASSIC • 2D • SUBTITULADO",
                        "HORARIO": "22:00"
                    },
                    {
                        "SALA": "MS • 2D • ESPAÑOL",
                        "HORARIO": "22:30"
                    }
                ],
                "CINEPOLIS MERLO": [
                    {
                        "SALA": "4D • 2D • SUBTITULADO",
                        "HORARIO": "21:30"
                    },
                    {
                        "SALA": "CLASSIC • 2D • ESPAÑOL",
                        "HORARIO": "22:00"
                    },
                    {
                        "SALA": "CLASSIC • 2D • ESPAÑOL",
                        "HORARIO": "22:30"
                    }
                ],
                "CINEPOLIS AVELLANEDA": [
                    {
                        "SALA": "4D • 2D • SUBTITULADO",
                        "HORARIO": "21:30"
                    },
                    {
                        "SALA": "CLASSIC • 2D • ESPAÑOL",
                        "HORARIO": "22:00 - 23:00"
                    },
                    {
                        "SALA": "CLASSIC • 2D • SUBTITULADO",
                        "HORARIO": "22:30"
                    }
                ],
                "CINEPOLIS ROSARIO": [
                    {
                        "SALA": "4D • 2D • SUBTITULADO",
                        "HORARIO": "22:15"
                    },
                    {
                        "SALA": "CLASSIC • 2D • ESPAÑOL",
                        "HORARIO": "22:40 - 23:15"
                    },
                    {
                        "SALA": "CLASSIC • 2D • SUBTITULADO",
                        "HORARIO": "23:00"
                    }
                ],
                "CINEPOLIS MENDOZA": [
                    {
                        "SALA": "CLASSIC • 2D • ESPAÑOL",
                        "HORARIO": "21:30 - 22:20"
                    },
                    {
                        "SALA": "CLASSIC • 2D • SUBTITULADO",
                        "HORARIO": "22:40"
                    },
                    {
                        "SALA": "CLASSIC • 2D • ESPAÑOL",
                        "HORARIO": "23:00"
                    },
                    {
                        "SALA": "4D • 2D • ESPAÑOL",
                        "HORARIO": "22:00"
                    }
                ],
                "CINEPOLIS MAIPU": [
                    {
                        "SALA": "CLASSIC • 2D • ESPAÑOL",
                        "HORARIO": "22:30 - 23:00"
                    }
                ],
                "CINEPOLIS NEUQUEN": [
                    {
                        "SALA": "CLASSIC • 2D • SUBTITULADO",
                        "HORARIO": "22:00"
                    },
                    {
                        "SALA": "4D • 2D • ESPAÑOL",
                        "HORARIO": "22:15"
                    },
                    {
                        "SALA": "MS • 2D • ESPAÑOL",
                        "HORARIO": "22:45"
                    }
                ],
                "CINEPOLIS LUJAN": [
                    {
                        "SALA": "CLASSIC • 2D • ESPAÑOL",
                        "HORARIO": "22:00"
                    },
                    {
                        "SALA": "CLASSIC • 2D • SUBTITULADO",
                        "HORARIO": "22:30"
                    },
                    {
                        "SALA": "CLASSIC • 2D • ESPAÑOL",
                        "HORARIO": "23:00"
                    }
                ]
            }
        },
        {
            "GENERO": "THRILLER",
            "CALIFICACION": "APTA MAYORES DE 16 AÑOS",
            "ORIGEN": "ARGENTINA",
            "SINOPSIS": "LA NOCHE MAGICA, LA PELICULA PROTAGONIZADA POR NATALIA OREIRO Y DIEGO PERETTI, LLEGA A LOS CINES ARGENTINOS EL 11 DE MARZO  EL FILM, UNA INNOVADORA COMEDIA DRAMATICA CON RITMO Y SUSPENSO DE THRILLER, DIRIGIDA POR GASTON PORTAL, CUENTA TAMBIEN CON LAS ACTUACIONES DE PABLO RAGO Y ESTEBAN BIGLIARDI  ESTA PRODUCIDA POR AEROPLANO  LA NOCHE MAGICA TRANSCURRE DURANTE NOCHEBUENA EN UNA CASA EN SAN ISIDRO  KIRA (NATALIA OREIRO) Y SU AMANTE CACHETE (PABLO RAGO), SE ENCUENTRAN EN EL DORMITORIO CUANDO OYEN LLEGAR A JUAN (ESTEBAN BIGLIARDI), EL MARIDO DE KIRA  PERO CUANDO CACHETE SE ESCONDE EN EL BALCON, SE ENCUENTRA CON ALGO PEOR; NICOLA (DIEGO PERETTI), UN EXCENTRICO LADRON QUE, COMO PAPA NOEL LLEVA UNA BARBA BLANCA Y UN GORRO ROJO, HA VENIDO A ROBAR EL DOMICILIO  NICOLA PROCEDE A ESPOSAR A TODOS LOS PRESENTES PERO EL ATRACO SE COMPLICA CUANDO SE ENCUENTRA CON ALICIA, LA PEQUEÑA HIJA DEL MATRIMONIO, QUIEN APENAS LO VE LE EXTIENDE UNA LISTA DE DESEOS… UNA PRODUCCION DE AEROPLANO, EN COPRODUCCION CON WORLD MEDIA (URUGUAY), DIRECTV, DIEGO KOLANKOWSKY Y SILVIA RODRIGUEZ; EN ASOCIACION CON WELAVIT, RBS, FILM SUEZ, KETAMA, TEDIGOQUE Y DK ENTERTAINMENT",
            "DURACION": "98 MINUTOS",
            "TITULO": "LA NOCHE MAGICA",
            "DIRECTOR": "GASTON PORTAL",
            "ACTORES": "NATALIA OREIRO, DIEGO PERETTI, PABLO RAGO, ESTEBAN BIGLIARDI, HERNAN JIMENEZ, LAURA LOPEZ MOYANO, ISABELA PALOPOLI",
            "WEB OFICIAL": "NO DISPONIBLE",
            "TITULO ORIGINAL": "LA NOCHE MAGICA",
            "DISTRIBUIDORA": "BUENA VISTA INTERNATIONAL",
            "FUNCIONES": {
                "CINEMA PARADISO": {
                    "SALA": "SALA HD",
                    "HORARIOS": [
                        "CASTELLANO : 20:45 - 23:10"
                    ]
                },
                "CINEPOLIS RECOLETA": [
                    {
                        "SALA": "CLASSIC • 2D • ESPAÑOL",
                        "HORARIO": "17:40"
                    }
                ],
                "CINEPOLIS NEUQUEN": [
                    {
                        "SALA": "CLASSIC • 2D • ESPAÑOL",
                        "HORARIO": "17:40"
                    }
                ]
            }
        },
        {
            "GENERO": "ACCION, CIENCIA FICCION",
            "CALIFICACION": "APTA MAYORES DE 13 AÑOS",
            "ORIGEN": "ESTADOS UNIDOS",
            "SINOPSIS": "AMBIENTADA EN LOS AÑOS 80S  EL MAYOR DESEO DE DIANA PRINCE PARECE SER TENER DEVUELTA A STEVE TREVOR  ESTO INEXPLICABLEMENTE PARECE HABERSE CONVERTIDO EN REALIDAD, PERO LA ENFRENTARA A DOS NUEVOS VILLANOS: MAX LORD Y CHEETAH",
            "DURACION": "151 MINUTOS",
            "TITULO": "MUJER MARAVILLA 1984",
            "DIRECTOR": "PATTY JENKINS",
            "ACTORES": "GAL GADOT, CHRIS PINE, KRISTEN WIIG, PEDRO PASCAL, CONNIE NIELSEN, ROBIN WRIGHT, GABRIELLA WILDE, NATASHA ROTHWELL, RAVI PATEL, OAKLEY BULL",
            "WEB OFICIAL": "NO DISPONIBLE",
            "TITULO ORIGINAL": "WONDER WOMAN 1984",
            "DISTRIBUIDORA": "WARNER BROS",
            "FUNCIONES": {
                "CINEMA ROCHA": {
                    "SALA": "SALA HD",
                    "HORARIOS": [
                        "CASTELLANO : 22:10"
                    ]
                },
                "CINEPOLIS RECOLETA": [
                    {
                        "SALA": "CLASSIC • 2D • SUBTITULADO",
                        "HORARIO": "22:50"
                    }
                ],
                "CINEPOLIS PILAR": [
                    {
                        "SALA": "CLASSIC • 2D • ESPAÑOL",
                        "HORARIO": "22:10"
                    }
                ],
                "CINEPOLIS MERLO": [
                    {
                        "SALA": "CLASSIC • 2D • ESPAÑOL",
                        "HORARIO": "22:40"
                    }
                ],
                "CINEPOLIS AVELLANEDA": [
                    {
                        "SALA": "CLASSIC • 2D • ESPAÑOL",
                        "HORARIO": "22:20"
                    }
                ],
                "CINEPOLIS MENDOZA": [
                    {
                        "SALA": "CLASSIC • 2D • ESPAÑOL",
                        "HORARIO": "22:30"
                    }
                ],
                "CINEPOLIS MAIPU": [
                    {
                        "SALA": "GC • 2D • ESPAÑOL",
                        "HORARIO": "22:40"
                    }
                ],
                "CINEPOLIS NEUQUEN": [
                    {
                        "SALA": "CLASSIC • 2D • ESPAÑOL",
                        "HORARIO": "22:15"
                    }
                ]
            }
        },
        {
            "GENERO": "ACCION, THRILLER, CIENCIA FICCION",
            "CALIFICACION": "APTA MAYORES DE 13 AÑOS",
            "ORIGEN": "REINO UNIDO, ESTADOS UNIDOS",
            "SINOPSIS": "ARMADO SOLAMENTE CON UNA PALABRA, TENET, EL PROTAGONISTA DEBERA LUCHAR POR LA SUPERVIVENCIA DEL MUNDO ENTERO Y EVITAR LA TERCERA GUERRA MUNDIAL, EN UNA HISTORIA DE ESPIONAJE INTERNACIONAL  LA MISION SE DESPLEGARA MAS ALLA DEL TIEMPO REAL  NO SON VIAJES EN EL TIEMPO, ES INVERSION",
            "DURACION": "150 MINUTOS",
            "TITULO": "TENET",
            "DIRECTOR": "CHRISTOPHER NOLAN",
            "ACTORES": "JOHN DAVID WASHINGTON, ROBERT PATTINSON, ELIZABETH DEBICKI, KENNETH BRANAGH, DIMPLE KAPADIA, HIMESH PATEL, AARON TAYLOR-JOHNSON, MICHAEL CAINE, CLEMENCE POESY, MARTIN DONOVAN",
            "WEB OFICIAL": "NO DISPONIBLE",
            "TITULO ORIGINAL": "TENET",
            "DISTRIBUIDORA": "WARNER",
            "FUNCIONES": {
                "CINEMA PARADISO": {
                    "SALA": "SALA HD",
                    "HORARIOS": [
                        "SUBTITULADA : 22:45"
                    ]
                },
                "CINEPOLIS RECOLETA": [
                    {
                        "SALA": "CLASSIC • 2D • SUBTITULADO",
                        "HORARIO": "23:10"
                    }
                ],
                "CINEPOLIS PILAR": [
                    {
                        "SALA": "CLASSIC • 2D • SUBTITULADO",
                        "HORARIO": "22:20"
                    }
                ]
            }
        },
        {
            "GENERO": "ACCION, COMEDIA, FAMILIA, ANIMACION, AVENTURA",
            "CALIFICACION": "APTA TODO PUBLICO",
            "ORIGEN": "ESTADOS UNIDOS",
            "SINOPSIS": "PELICULA DEL CLASICO DIBUJO ANIMADO DE TOM Y JERRY QUE MEZCLA LIVE-ACTION CON ANIMACION  \r\nJERRY SE MUDA AL HOTEL MAS LUJOSO DE NUEVA YORK JUSTO ANTES DEL \"CASAMIENTO DEL SIGLO\"; LA COORDINADORA DE LA CEREMONIA, DESESPERADA, NO TIENE MAS OPCION QUE CONTRATAR A TOM PARA ELIMINAR A JERRY  ESTO DESATA UNA BATALLA ENTRE GATO Y RATON QUE AMENAZA CON DESTRUIR LA CARRERA DE LA COORDINADORA, LA CEREMONIA E INCLUSO QUIZAS EL HOTEL MISMO \r\nPERO PRONTO SURGE UN PROBLEMA MAS GRAVE: UN EMPLEADO AMBICIOSO Y DIABOLICO QUE CONSPIRA CONTRA LOS TRES",
            "DURACION": "101 MINUTOS",
            "TITULO": "TOM Y JERRY",
            "DIRECTOR": "TIM STORY",
            "ACTORES": "WILLIAM HANNA, MEL BLANC, JUNE FORAY, FRANK WELKER, T-PAIN, NICKY JAM, BOBBY CANNAVALE, LIL REL HOWERY, CHLOË GRACE MORETZ, MICHAEL PEÑA",
            "WEB OFICIAL": "NO DISPONIBLE",
            "TITULO ORIGINAL": "TOM AND JERRY",
            "DISTRIBUIDORA": "WARNER",
            "FUNCIONES": {
                "CINEMA PARADISO": {
                    "SALA": "SALA HD",
                    "HORARIOS": [
                        "CASTELLANO : 13:20 - 15:40 - 18:00"
                    ]
                },
                "CINEMA ROCHA": {
                    "SALA": "SALA HD",
                    "HORARIOS": [
                        "CASTELLANO : 14:00 - 16:15 - 18:30"
                    ]
                },
                "CINEMA SAN MARTIN": {
                    "SALA": "SALA HD",
                    "HORARIOS": [
                        "CASTELLANO : 14:00 - 18:25"
                    ]
                },
                "CINEPOLIS RECOLETA": [
                    {
                        "SALA": "CLASSIC • 2D • ESPAÑOL",
                        "HORARIO": "16:10 - 18:50"
                    }
                ],
                "CINEPOLIS PILAR": [
                    {
                        "SALA": "CLASSIC • 2D • ESPAÑOL",
                        "HORARIO": "16:00 - 17:10 - 19:40"
                    }
                ],
                "CINEPOLIS MERLO": [
                    {
                        "SALA": "CLASSIC • 2D • ESPAÑOL",
                        "HORARIO": "16:40"
                    }
                ],
                "CINEPOLIS AVELLANEDA": [
                    {
                        "SALA": "CLASSIC • 2D • ESPAÑOL",
                        "HORARIO": "15:45 - 16:45 - 17:45"
                    }
                ],
                "CINEPOLIS ROSARIO": [
                    {
                        "SALA": "CLASSIC • 2D • ESPAÑOL",
                        "HORARIO": "17:00"
                    }
                ],
                "CINEPOLIS MENDOZA": [
                    {
                        "SALA": "CLASSIC • 2D • ESPAÑOL",
                        "HORARIO": "16:40 - 17:20 - 19:00 - 19:50"
                    }
                ],
                "CINEPOLIS NEUQUEN": [
                    {
                        "SALA": "CLASSIC • 2D • ESPAÑOL",
                        "HORARIO": "15:45 - 17:30"
                    }
                ],
                "CINEPOLIS LUJAN": [
                    {
                        "SALA": "CLASSIC • 2D • ESPAÑOL",
                        "HORARIO": "16:20"
                    }
                ]
            }
        }
    ],
    "CINEMA LA PLATA": [
        {
            "TITULO": "EL SECRETO DEL BOSQUE",
            "GENERO": "TERROR",
            "ORIGEN": "EEUU",
            "WEB OFICIAL": "NO DISPONIBLE",
            "DURACION": "87 MINUTOS",
            "DIRECTOR": "VIKRAM JAYAKUMAR",
            "CALIFICACION": "APTA MAYORES DE 13 AÑOS",
            "ACTORES": "VANESSA CURRY, SAHIL SHROFF, SUBRAT DUTTA",
            "SINOPSIS": "MIENTRAS DISFRUTAN DE UNA ESCAPADA ROMANTICA EN LA INDIA SALVAJE, UNA PAREJA DE LOS ANGELES ACCIDENTALMENTE ES TESTIGO DEL EXORCISMO DE UNA NIÑA DE 11 AÑOS A LA CUAL INTENTARAN RESCATAR",
            "FUNCIONES": {
                "CINEMA SAN MARTIN": {
                    "SALA": "SALA HD",
                    "HORARIOS": [
                        "CASTELLANO : 20:45 - 23:10"
                    ]
                }
            }
        },
        {
            "TITULO": "LA FABRICA DE SUEÑOS",
            "GENERO": "DRAMA ROMANTICO",
            "ORIGEN": "ALEMANIA",
            "WEB OFICIAL": "NO DISPONIBLE",
            "DURACION": "127 MINUTOS",
            "DIRECTOR": "MARTIN SCHREIER",
            "CALIFICACION": "APTA TODO PUBLICO",
            "ACTORES": "DENNIS MOJEN, EMILIA SCHÜLE, HEINER LAUTERBACH, KEN DUKEN, NIKOLAI KINSKI, MICHAEL GWISDEK, WILFRIED HOCHHOLDINGER",
            "SINOPSIS": "DURANTE EL VERANO DE 1961, EMIL COMIENZA A TRABAJAR COMO EXTRA EN LOS FAMOSOS ESTUDIOS DE CINE BABELSBERG  DURANTE EL RODAJE DE UNA SUPERPRODUCCION, SE ENAMORA DE LA BAILARINA FRANCESA LLAMADA MILOU  CUANDO POR FIN CONQUISTA A MILOU, EL RODAJE SE CANCELA REPENTINAMENTE Y SON OBLIGADOS A SEPARARSE YA QUE EL MURO DE BERLIN ES LEVANTADO EN AGOSTO DE ESE AÑO  AÑOS MAS TARDE, EMIL TRAZARA UN ATREVIDO Y ARRIESGADO PLAN PARA LOGRAR QUE EL RODAJE CONTINUE Y REENCONTRARSE CON MILOU",
            "FUNCIONES": {
                "CINEMA PARADISO": {
                    "SALA": "SALA HD",
                    "HORARIOS": [
                        "SUBTITULADA : 19:45"
                    ]
                }
            }
        },
        {
            "TITULO": "LOS INTRUSOS",
            "GENERO": "TERROR",
            "ORIGEN": "REINO UNIDO - FRANCIA",
            "WEB OFICIAL": "NO DISPONIBLE",
            "DURACION": "92 MINUTOS",
            "DIRECTOR": "JULIUS BERG",
            "CALIFICACION": "APTA MAYORES DE 16 AÑOS",
            "ACTORES": "MAISIE WILLIAMS, RITA TUSHINGHAM, SYLVESTER MCCOY, JAKE CURRAN, IAN KENNY, ANDREW ELLIS, STACHA HICKS",
            "SINOPSIS": "INGLATERRA RURAL, PRINCIPIOS DE LOS NOVENTA: LOS AMIGOS DE LA INFANCIA NATHAN Y TERRY SON INDUCIDOS POR EL SOCIOPATA LOCAL PARA ROBAR A LOS HUGGINS, UN MEDICO ANCIANO Y SU ESPOSA  LA NOVIA DE NATHAN, MARY, ESTA TOTALMENTE EN CONTRA DEL PLAN, PERO AL CABO DE UNAS HORAS SE ENCUENTRA EN EL CASERON, AL LADO DE LA CAJA FUERTE DEL SOTANO Y DE UNA PANDA DE INDIVIDUOS, A CUAL MAS SOSPECHOSO",
            "FUNCIONES": {
                "CINEMA SAN MARTIN": {
                    "SALA": "SALA HD",
                    "HORARIOS": [
                        "SUBTITULADA : 16:00 - 20:30"
                    ]
                }
            }
        },
        {
            "TITULO": "RAYA Y EL ULTIMO DRAGON",
            "GENERO": "ANIMACION",
            "ORIGEN": "EEUU",
            "WEB OFICIAL": "NO DISPONIBLE",
            "DURACION": "114 MINUTOS",
            "DIRECTOR": "DON HALL, CARLOS LOPEZ ESTRADA, PAUL BRIGGS",
            "CALIFICACION": "APTA TODO PUBLICO C/L",
            "ACTORES": "KELLY MARIE TRAN, AWKWAFINA, DANIEL DAE KIM",
            "SINOPSIS": "AMBIENTADA EN EL SUDESTE ASIATICO, LA CINTA SIGUE LA HISTORIA DE RAYA, UNA NIÑA DE UN GRAN ESPIRITU AVENTURERO QUE VIVE EN UN REINO LLAMADO KUMANDRA  ESTE LEJANO Y RECONDITO TERRITORIO ESTA HABITADO POR UNA CIVILIZACION MILENARIA  CINCO SON LOS CLANES QUE FORMAN ESTA TIERRA CONOCIDA COMO LA DEL DRAGON Y RAYA, CON EL OBJETIVO DE DEVOLVER EL EQUILIBRIO A SU TIERRA, SERA LA ENCARGADA DE ENCONTRAR AL ULTIMO DE LOS DRAGONES EN LA MAYOR AVENTURA DE SU VIDA",
            "FUNCIONES": {
                "CINEMA CITY": {
                    "SALA": "SALA HD",
                    "HORARIOS": [
                        "CASTELLANO : 13:10 - 15:25 - 17:45 - 20:00"
                    ]
                },
                "CINEMA OCHO": {
                    "SALA": "SALA HD",
                    "HORARIOS": [
                        "CASTELLANO : 13:00 - 15:20 - 17:50 - 20:15 - 22:30"
                    ]
                },
                "CINEMA PARADISO": {
                    "SALA": "SALA HD",
                    "HORARIOS": [
                        "CASTELLANO : 13:00 - 15:15 - 17:30"
                    ]
                },
                "CINEMA ROCHA": {
                    "SALA": "SALA HD",
                    "HORARIOS": [
                        "CASTELLANO : 13:45 - 16:45 - 19:45"
                    ]
                }
            }
        },
        {
            "TITULO": "SCOOBY!",
            "GENERO": "ACCION, AVENTURAS",
            "ORIGEN": "EEUU",
            "WEB OFICIAL": "NO DISPONIBLE",
            "DURACION": "94 MINUTOS",
            "DIRECTOR": "TONY CERVONE",
            "CALIFICACION": "APTA TODO PUBLICO",
            "ACTORES": "ANIMACION",
            "SINOPSIS": "PELICULA ANIMADA SOBRE EL DIBUJITO SCOOBY-DOO QUE SIGUE A UN PERRO GRAN DANES Y SUS 4 AMIGOS: FRED, DAPHNE, VILMA Y SHAGGY QUIENES JUNTOS VIAJAN POR EL MUNDO RESOLVIENDO MISTERIOS RELACIONADOS CON FANTASMAS Y OTRAS FUERZAS SOBRENATURALES -\r\nSCOOBY! REVELA COMO SE CONOCIERON LOS AMIGOS DE TODA LA VIDA SCOOBY Y SHAGGY, Y COMO SE UNIERON CON LOS JOVENES DETECTIVES FRED, VELMA Y DAPHNE PARA FORMAR MYSTERY INC  AHORA, CON CIENTOS DE CASOS RESUELTOS Y AVENTURAS COMPARTIDAS, SCOOBY Y LA PANDILLA SE ENFRENTAN AL MISTERIO MAS DESAFIANTE DE TODOS LOS TIEMPOS: UNA TRAMA PARA LIBERAR CERBERUS, EL PERRO FANTASMA, SOBRE EL MUNDO  MIENTRAS COMPITEN PARA DETENER ESTE \"PERROCALIPSIS\" GLOBAL, LA PANDILLA DESCUBRE QUE SCOOBY TIENE UN LEGADO SECRETO Y UN GRAN Y EPICO DESTINO QUE NADIE IMAGINABA",
            "FUNCIONES": {
                "CINEMA PARADISO": {
                    "SALA": "SALA HD",
                    "HORARIOS": [
                        "CASTELLANO : 16:00"
                    ]
                }
            }
        },
        {
            "TITULO": "TROLLS 2: WORLD TOUR",
            "GENERO": "ANIMACION",
            "ORIGEN": "EEUU",
            "WEB OFICIAL": "NO DISPONIBLE",
            "DURACION": "91 MINUTOS",
            "DIRECTOR": "WALT DOHRN, DAVID P  SMITH",
            "CALIFICACION": "APTA TODO PUBLICO",
            "ACTORES": "ANIMACION",
            "SINOPSIS": "EN UNA AVENTURA QUE LES LLEVARA MAS ALLA DE TODO LO QUE HABIAN CONOCIDO, POPPY Y BRANCH DESCUBREN QUE SU TRIBU DE TROLLS ES SOLO UNA DE LAS SEIS QUE EXISTEN, QUE EL RESTO ESTAN REPARTIDAS EN SEIS REINOS Y CONSAGRADAS A SEIS TIPOS DISTINTOS DE MUSICA: FUNK, COUNTRY, TECNO, CLASICA, POP Y ROCK  LA REINA BARBARA, MIEMBRO DE LA REALEZA DEL HARD ROCK, Y SU PADRE, EL REY METAL, QUIEREN ACABAR CON EL RESTO DE GENEROS MUSICALES E IMPONER EL REINADO DEL ROCK  CON EL DESTINO DEL MUNDO EN JUEGO, POPPY Y BRANCH, JUNTO CON EL RESTO DE LA PANDILLA - GRANDULLON, CHANELLE, SATEN, COOPER Y GUY DIAMANTE-, VISITARAN LOS DEMAS REINOS PARA UNIR A LOS TROLLS CONTRA LOS PLANES DE BARB DE ECLIPSARLOS A TODOS",
            "FUNCIONES": {
                "CINEMA SAN MARTIN": {
                    "SALA": "SALA HD",
                    "HORARIOS": [
                        "CASTELLANO : 16:10"
                    ]
                }
            }
        }
    ],
    "CINEPOLIS": [
        {
            "TITULO": "DEMON SLAYER MUGEN TRAIN",
            "SINOPSIS": "DEMON SLAYER: MUGEN TRAIN CUENTA LA HISTORIA DE TANJIRO KAMADO, KYOUJUROU RENGOKU Y SUS AMIGOS DE LA COMPAÑIA DE CAZADORES DE DEMONIOS (DEMON SLAYER CORPS)  JUNTOS, SE UNEN CON UNO DE LOS MEJORES ESPADACHINES DE LA COMPAÑIA, KYOJURO RENGOKU, PARA INVESTIGAR UNA MISTERIOSA SERIE DE DESAPARICIONES QUE HAN OCURRIDO DENTRO DEL “TREN INFINITO”  POCO SABEN QUE ENMU, UNO DE LOS MIEMBROS DE LAS DOCE LUNAS DEMONIACAS, TAMBIEN ESTA A BORDO Y LES HA PREPARADO UNA TRAMPA",
            "TITULO ORIGINAL": "DEMON SLAYER MUGEN TRAIN",
            "ORIGEN": "JAPON",
            "GENERO": "ANIMACION, ACCION, AVENTURA, FANTASIA, DRAMA",
            "DIRECTOR": "HARUO SOTOZAKI",
            "ACTORES": "NATSUKI HANAE, AKARI KITO, HIRO SHIMONO, YOSHITSUGU MATSUOKA, SATOSHI HINO, TAKAHIRO SAKURAI, KATSUYUKI KONISHI, SAORI HAYAMI, KENICHI SUZUMURA, TOMOKAZU SEKI",
            "CALIFICACION": "N/A",
            "DURACION": "120 MIN",
            "DISTRIBUIDORA": "CINEPOLIS",
            "FUNCIONES": {
                "CINEPOLIS RECOLETA": [
                    {
                        "SALA": "CLASSIC • 2D • SUBTITULADO",
                        "HORARIO": "20:00"
                    }
                ],
                "CINEPOLIS PILAR": [
                    {
                        "SALA": "CLASSIC • 2D • SUBTITULADO",
                        "HORARIO": "20:00"
                    }
                ],
                "CINEPOLIS MERLO": [
                    {
                        "SALA": "CLASSIC • 2D • SUBTITULADO",
                        "HORARIO": "20:00"
                    }
                ],
                "CINEPOLIS AVELLANEDA": [
                    {
                        "SALA": "CLASSIC • 2D • SUBTITULADO",
                        "HORARIO": "20:00"
                    }
                ],
                "CINEPOLIS ROSARIO": [
                    {
                        "SALA": "CLASSIC • 2D • SUBTITULADO",
                        "HORARIO": "20:00"
                    }
                ],
                "CINEPOLIS MENDOZA": [
                    {
                        "SALA": "CLASSIC • 2D • SUBTITULADO",
                        "HORARIO": "20:00"
                    }
                ],
                "CINEPOLIS NEUQUEN": [
                    {
                        "SALA": "CLASSIC • 2D • SUBTITULADO",
                        "HORARIO": "20:00"
                    }
                ],
                "CINEPOLIS LUJAN": [
                    {
                        "SALA": "CLASSIC • 2D • SUBTITULADO",
                        "HORARIO": "20:00"
                    }
                ]
            }
        },
        {
            "TITULO": "EL SILENCIO DEL CAZADOR",
            "SINOPSIS": "GUZMAN TRABAJA EN UN PARQUE NACIONAL CON UN GRUPO PEQUEÑO PERO COMPROMETIDO DE GUARDAS EN ALERTA, ANTE LA APARICION DE UN ANIMAL SALVAJE QUE ACECHA DESDE LA SELVA  SARA, ESPOSA DE GUZMAN, ES UNA MEDICA DEDICADA A LA COMUNIDAD LOCAL  ENTRE ELLOS SE ENCUENTRA UN AMIGO DE LA INFANCIA DE AMBOS Y EXPAREJA DE SARA  LOS CELOS, LAS CUESTIONES NO SALDADAS Y LAS RELACIONES DE PODER ENFRENTARAN A LOS TRES HASTA LLEGAR A UN DESENLACE SIN TREGUA",
            "TITULO ORIGINAL": "EL SILENCIO DEL CAZADOR",
            "ORIGEN": "ARGENTINA",
            "GENERO": "DRAMA, THRILLER",
            "DIRECTOR": "MARTIN DESALVO",
            "ACTORES": "PABLO ECHARRI, ALBERTO AMMANN, MORA RECALDE, CESAR BORDON, MERCEDES BURGOS",
            "CALIFICACION": "P13R",
            "DURACION": "103 MIN",
            "DISTRIBUIDORA": "CINETREN",
            "FUNCIONES": {
                "CINEPOLIS RECOLETA": [
                    {
                        "SALA": "CLASSIC • 2D • ESPAÑOL",
                        "HORARIO": "22:20"
                    }
                ]
            }
        },
        {
            "TITULO": "FATE STAY NIGHT HEAVEN’S FEEL: PARTE 3",
            "SINOPSIS": "¡LA HISTORIA DE FATE STAY NIGHT HEAVEN’S FEEL LLEGA A SU FIN!EL CAPITULO FINAL DE LA TRILOGIA MAS AMBICIOSA Y OSCURA DE ESTA FRANQUICIA ESTA AQUI  SAKURA MATOU CON LOS PECADOS QUE HA COMETIDO SE HUNDE EN LA OSCURIDAD, SHIROU EMIYA HA JURADO PROTEGERLA Y DETENER LA GUERRA POR EL SANTO GRIAL, UNA GUERRA DONDE PODEROSOS MAGOS Y ESPIRITUS HEROICOS TRABAJAN JUNTOS PARA DERROTAR A LOS DEMAS, EL VENCEDOR OBTENDRA EL SANTO GRIAL, UN CONTENEDOR QUE PUEDE HACER REALIDAD CUALQUIER DESEO… PERO ESTA GUERRA HA CORROMPIDO AL GRIAL  ¿PODRA SHIROU SALVAR A SAKURA? ¿CUAL SERA EL PRECIO DE ESTO?",
            "TITULO ORIGINAL": "GEKIJOUBAN FATE/STAY NIGHT",
            "ORIGEN": "JAPON",
            "GENERO": "ANIMACION, ROMANCE, FANTASIA, ACCION, DRAMA",
            "DIRECTOR": "TOMONORI SUDÔ",
            "ACTORES": "NORIAKI SUGIYAMA, NORIKO SHITAYA, AYAKO KAWASUMI, KANA UEDA, MAI KADOWAKI, MIKI ITŌ, JOUJI NAKATA, MASANE TSUKAYAMA, YŪ ASAKAWA, TETSU INADA",
            "CALIFICACION": "ATP",
            "DURACION": "123 MIN",
            "FUNCIONES": {
                "CINEPOLIS RECOLETA": [
                    {
                        "SALA": "CLASSIC • 2D • SUBTITULADO",
                        "HORARIO": "19:45"
                    }
                ]
            }
        },
        {
            "TITULO": "TROLLS 2: GIRA MUNDIAL",
            "SINOPSIS": "EN UNA AVENTURA QUE LES LLEVARA MAS ALLA DE TODO LO QUE HABIAN CONOCIDO, POPPY Y BRANCH DESCUBREN QUE SU TRIBU DE TROLLS ES SOLO UNA DE LAS SEIS QUE EXISTEN, QUE EL RESTO ESTAN REPARTIDAS EN SEIS REINOS Y CONSAGRADAS A SEIS TIPOS DISTINTOS DE MUSICA: FUNK, COUNTRY, TECNO, CLASICA, POP Y ROCK  LA REINA BARBARA, MIEMBRO DE LA REALEZA DEL HARD ROCK, Y SU PADRE, EL REY METAL, QUIEREN ACABAR CON EL RESTO DE GENEROS MUSICALES E IMPONER EL REINADO DEL ROCK  CON EL DESTINO DEL MUNDO EN JUEGO, POPPY Y BRANCH, JUNTO CON EL RESTO DE LA PANDILLA — GRANDULLON, CHANELLE, SATEN, COOPER Y GUY DIAMANTE—, VISITARAN LOS DEMAS REINOS PARA UNIR A LOS TROLLS CONTRA LOS PLANES DE BARB DE ECLIPSARLOS A TODOS",
            "TITULO ORIGINAL": "TROLLS 2",
            "ORIGEN": "ESTADOS UNIDOS",
            "GENERO": "ANIMACION, FAMILIA, COMEDIA, FANTASIA, AVENTURA, MUSICA",
            "DIRECTOR": "WALT DOHRN",
            "ACTORES": "JUSTIN TIMBERLAKE, ANNA KENDRICK, SAM ROCKWELL, CHANCE THE RAPPER, ANTHONY RAMOS, KARAN SONI, FLULA BORG, JAMIE DORNAN, JAMES CORDEN, KUNAL NAYYAR",
            "CALIFICACION": "N/A",
            "DURACION": "90 MIN",
            "DISTRIBUIDORA": "UIP",
            "FUNCIONES": {
                "CINEPOLIS RECOLETA": [
                    {
                        "SALA": "CLASSIC • 2D • ESPAÑOL",
                        "HORARIO": "17:15"
                    }
                ],
                "CINEPOLIS PILAR": [
                    {
                        "SALA": "CLASSIC • 2D • ESPAÑOL",
                        "HORARIO": "16:10 - 17:20"
                    }
                ],
                "CINEPOLIS MERLO": [
                    {
                        "SALA": "CLASSIC • 2D • ESPAÑOL",
                        "HORARIO": "17:10"
                    }
                ],
                "CINEPOLIS AVELLANEDA": [
                    {
                        "SALA": "CLASSIC • 2D • ESPAÑOL",
                        "HORARIO": "16:30"
                    }
                ],
                "CINEPOLIS ROSARIO": [
                    {
                        "SALA": "CLASSIC • 2D • ESPAÑOL",
                        "HORARIO": "17:10"
                    }
                ],
                "CINEPOLIS MENDOZA": [
                    {
                        "SALA": "CLASSIC • 2D • ESPAÑOL",
                        "HORARIO": "17:00 - 17:25"
                    }
                ],
                "CINEPOLIS NEUQUEN": [
                    {
                        "SALA": "CLASSIC • 2D • ESPAÑOL",
                        "HORARIO": "15:00"
                    }
                ],
                "CINEPOLIS LUJAN": [
                    {
                        "SALA": "CLASSIC • 2D • ESPAÑOL",
                        "HORARIO": "16:10"
                    }
                ]
            }
        }
    ]
}